Calculating rifle vs. rifle success rates • valorantr
…
  inner_join(
    events_na2022,
    by = "event_id"
  ) |> 
  unnest_wider(c(team1, team2), names_sep = "_") |>
  select(
    series_id = id, 
    event_id, 
    team1_id,
    team1_name = team1_name,
    team2_id,
    team2_name = team2_name
  )
series_na2022
#> # A tibble: 100 × 6
#>    series_id event_id team1_id team1_name    team2_id team2_name       
#>        <int>    <int>    <int> <chr>            <int> <chr>            
#>  1     34293     1740     5201 The Guard          305 100 Thieves      
#>  2     34294     1740      617 FaZe Clan          305 100 Thieves      
#>  3     34269     1740      305 100 Thieves        141 Cloud9           
#>  4     34132     1740     5201 The Guard          617 FaZe Clan        
#>  5     34080     1740      141 Cloud9             116 NRG Esports      
#>  6     34079     1740      305 100 Thieves        388 Sentinels        
#>  7     34032     1740     1448 Evil Geniuses      116 NRG Esports      
#>  8     34030     1740      617 FaZe Clan          305 100 Thieves      
#>  9     34031     1740      388 Sentinels         7510 Shopify Rebellion
#> 10     34029     1740     5201 The Guard          141 Cloud9           
#> # … with 90 more rows
…
  #   victim_weapon_category == "rifle"
  # ) |>
  filter(
    (killer_weapon %in% c("phantom", "vandal")) &
      (victim_weapon %in% c("phantom", "vandal"))
  ) |>
  count(player_id, ign, is_killer, sort = TRUE) |> 
  group_by(player_id, ign) |> 
  mutate(total = sum(n), prop = n / total) |> 
  ungroup() |> 
  filter(is_killer) |>
  select(-is_killer) |> 
  arrange(desc(prop))
rifle_rifle_win_rates_by_player_na2022
#> # A tibble: 85 × 5
#>    player_id ign           n total  prop
#>        <int> <chr>     <int> <int> <dbl>
#>  1       394 Poach        12    20 0.6  
#>  2      3016 koalanoob    70   122 0.574
#>  3      1802 Cryocells   209   367 0.569
#>  4     11412 trent       344   614 0.560
#>  5      1780 NiSMO       122   218 0.560
#>  6       789 dicey       199   361 0.551
#>  7      3798 Zander      149   272 0.548
#>  8      1804 valyn       336   616 0.545
#>  9      3352 penny        99   182 0.544
#> 10      7025 wippie      135   250 0.54 
#> # … with 75 more rows
…
